*** Darwin 4x18 ***
Turn = 0.
  012345678901234567
0 .rhtr.frfff.ftr.t.
1 htrhfrftr.tttr.f.r
2 rhhht.frftffh.rrfr
3 tfrtrthf.rhfftrr..

Turn = 1.
  012345678901234567
0 .rrtr.rrfff.ft.rt.
1 httrtrft.ttttt.f.r
2 rhtht.ftttftt.rrf.
3 rftttttf.thtttrr.r

*** Darwin 1x12 ***
Turn = 0.
  012345678901
0 htrrhrtthftf

*** Darwin 5x14 ***
Turn = 0.
  01234567890123
0 ..t...........
1 ..............
2 ....r......f.r
3 ..............
4 .............f

Turn = 2.
  01234567890123
0 ..t...........
1 ..............
2 ...........rr.
3 ..............
4 ....r........f

Turn = 4.
  01234567890123
0 ..t........r..
1 ..............
2 ..........r...
3 ..............
4 ...r.........f

*** Darwin 15x18 ***
Turn = 0.
  012345678901234567
0 hf.r...t.rth.fr.f.
1 rrt.frt..hf.hth.hr
2 rt.f...fhfftrrr.hf
3 t..t..t.f.t....t.r
4 h..rtft.rh.h..rr..
5 frr.tffrtfft..r...
6 .r.f..f..r...thhrt
7 h.h.t.f..hh.....ff
8 ..r..f.ft.tt.....t
9 t.ff..hr.r.h....fr
0 ...h..httrt.hf.t.h
1 tt..t..hf..tt..tht
2 ..r.h...rrf.tffhhr
3 ...f.h..rhr..rr.hh
4 rh........r..f.htf

*** Darwin 14x19 ***
Turn = 0.
  0123456789012345678
0 ....t..............
1 .........f.........
2 ..tt...............
3 .......h..r.......r
4 .....r.............
5 ...................
6 ...................
7 ...................
8 ....f.........t..r.
9 .......h...h.......
0 ...................
1 .h.................
2 ...................
3 ...................

*** Darwin 6x6 ***
Turn = 0.
  012345
0 rrtfft
1 ttrfhr
2 rtttth
3 rrfrft
4 r.hfht
5 tt.rrt

Turn = 2.
  012345
0 rrrfft
1 trrthr
2 ttrttt
3 rrrttt
4 rt.trr
5 rt.trr

Turn = 4.
  012345
0 rrrrtt
1 trrttt
2 tttttt
3 rrrttt
4 tr.trr
5 tt.ttr

*** Darwin 9x15 ***
Turn = 0.
  012345678901234
0 ...rth.h...t.th
1 r.ftrhh.tf....h
2 ...ft.f..f.tthh
3 rhtf...r.hth.ft
4 rt..ffh.rr.rt.f
5 h..rrr.ttt.tht.
6 r.trf.tfff..f..
7 t......f.tt..hf
8 ftrfr.rh..ftrfr

Turn = 1.
  012345678901234
0 ..r.th.....t.th
1 .rftthhhtf...hh
2 ...ft.fr.f.tt.h
3 rhtf.....hthrft
4 rt..ff..rr.rh.t
5 .r.rr.htr.tt.t.
6 .ttr.rttrf..f..
7 t...r..f.tt..hf
8 frrfr.r.r.ftrrr

Turn = 2.
  012345678901234
0 .r..th.....t.tt
1 .rrtthhrtf...ht
2 r..ft.fr.f.tt.h
3 .htt.....htttft
4 .t..rf..r..tt.t
5 r.rrr.ttrrtt.t.
6 .tt.r.ttr.r.f..
7 t...rr.f.tt..hf
8 frrrr..r.rtttrr

Turn = 3.
  012345678901234
0 r...th.....t.tt
1 rr.tthhrtf...tt
2 ..rft.fr.f.tt.h
3 .ttt......tttft
4 .t..rf..rr.tt.t
5 ..r.r.ttt.tt.t.
6 rttr.rttrt.rf..
7 t...r..t.tt..hr
8 trrrrr..rrrtrrr

Turn = 4.
  012345678901234
0 rr..tt.....t.tt
1 r..ttttrrf...tt
2 ..ttt.fr.f.tt.t
3 .ttt.r....tttft
4 .tr.r...r..tt.t
5 ...r..tttttt.t.
6 ttttrrrttt.r...
7 r......t.tt.rhr
8 rrrrrr..rrrtrrr

Turn = 5.
  012345678901234
0 rr..tt..r..t.tt
1 .r.ttttr.f...tt
2 ..tttrt.rf.tt.t
3 .trt....r.ttttt
4 .tr..r.....tt.t
5 ..r...tttttt.t.
6 tttttr.ttt..r.r
7 trrr..rt.tt.rh.
8 t..r..r.rrttrrr

Turn = 6.
  012345678901234
0 rr..tt..r..t.tt
1 ..rttrt..f...tt
2 ..tttrtrr.rtt.t
3 .rrt....r.ttttt
4 .tr...r....tt.t
5 .r...rtttttt.tr
6 ttrrt..ttt...r.
7 ttrr..rt.ttr.hr
8 t.r....rrrttrr.

Turn = 7.
  012345678901234
0 ...rtt...r.t.tt
1 rrt.rtt..f...tt
2 ..tttttt.rrrt.t
3 rr.t.....rttttt
4 .tt..r.r...tt.r
5 r..r..tttttt.tr
6 trrrt..ttt...tr
7 ttr...rr.rrrrr.
8 tr.....rrrtt.r.

Turn = 8.
  012345678901234
0 ...rtt....tt.tt
1 ..t.ttt..f...tt
2 rrtttttt.rrrt.t
3 rr.t.r...rrtrtt
4 .ttr....r..tt.r
5 t..r..tttttt.tr
6 trr.t..rtt..rtr
7 tt.r..rr.rtr.r.
8 tt.....rrrtt.r.

*** Darwin 19x15 ***
Turn = 0.
  012345678901234
0 f.....t....hh.h
1 .hrrh.h........
2 ...h...h..h....
3 r..t..hrft..hrt
4 t.fr.hrrhr.t..t
5 f..f..h..fh...f
6 ....f..rh.tthr.
7 h.h.hft...tt...
8 ...h..h.h..f.tf
9 t..r.h.r.hf....
0 ..f......ht...r
1 thrt.......f..r
2 ...t.t.hr.t.f.h
3 .f..f...f..r...
4 h...ttrf....f.f
5 t.frt.h..thf...
6 ..hr.t....h.htf
7 .f..r..frtrh...
8 r.f.h..tf...hf.

*** Darwin 13x13 ***
Turn = 0.
  0123456789012
0 h.......t....
1 .............
2 h........h...
3 .............
4 ....t......h.
5 ...t...h....h
6 ...f..fr..f..
7 ......r..hr..
8 .h.....h..fh.
9 .............
0 ..h..........
1 .........f...
2 .............

*** Darwin 3x7 ***
Turn = 0.
  0123456
0 frft.h.
1 fhhtttt
2 tht.hht

Turn = 2.
  0123456
0 frrr.h.
1 ftttttt
2 ttt.ttt

Turn = 4.
  0123456
0 ttr.rh.
1 ttrtttt
2 ttr.ttt

Turn = 6.
  0123456
0 trrrtt.
1 ttr.ttt
2 ttt.ttt

Turn = 8.
  0123456
0 trrttt.
1 tt.tttt
2 ttt.ttt

Turn = 10.
  0123456
0 ttrttt.
1 tt.tttt
2 ttt.ttt

*** Darwin 6x19 ***
Turn = 0.
  0123456789012345678
0 rhfr.fttftrf.trrhtf
1 rttttfr.htrtt.hrfht
2 frhffhfrhffrfr.t.hh
3 ftr..rrf..t.rrf....
4 rthf.ht.rhrrhtf.ftt
5 hrh.hrrt.hfh.fthrt.

*** Darwin 13x1 ***
Turn = 0.
  0
0 r
1 r
2 f
3 t
4 t
5 t
6 r
7 h
8 t
9 f
0 f
1 h
2 h

Turn = 3.
  0
0 r
1 r
2 r
3 r
4 r
5 t
6 t
7 t
8 t
9 t
0 f
1 h
2 h

Turn = 6.
  0
0 r
1 r
2 t
3 t
4 t
5 t
6 t
7 t
8 t
9 t
0 t
1 h
2 h

Turn = 9.
  0
0 r
1 r
2 r
3 t
4 t
5 t
6 t
7 t
8 t
9 t
0 t
1 t
2 h

Turn = 12.
  0
0 r
1 r
2 r
3 r
4 t
5 t
6 t
7 t
8 t
9 t
0 t
1 t
2 t

*** Darwin 20x19 ***
Turn = 0.
  0123456789012345678
0 h....r..rfrhrr..r..
1 .rr.h.r.tt..t..ft..
2 rt..fr.rh...h.rr...
3 ....h.....hfr.r.rtr
4 hh.tr.t.ff.f.......
5 ...f.th.r.......fh.
6 .rr...fr.h..f..r..r
7 .tt.th.ftrf......th
8 ....fr....t.f.ttt.r
9 .r..h.....ff...frrh
0 h..rr....hrft....h.
1 r.r.rh.rt..r.r.f...
2 .f....r..rh...t.f..
3 .tf..fh.........hf.
4 ..thf.tf...h..fh...
5 .t.t.r......rhtff..
6 rr.rrr...ft...fr...
7 ..h...f.....ff..fh.
8 ..hh......tt..h..h.
9 .f..tf.f.t..ff.....

Turn = 3.
  0123456789012345678
0 h....r.rr.rrr.r.r..
1 .rr....r.r..t..f..r
2 .r..f..rr.r..rrrr.r
3 r.h......rrr..rr.t.
4 rhrt.tt.ff.f.......
5 ...t.trr........f.h
6 .r...rtt...hf.r..rr
7 h.rrth.tttt......t.
8 ...rrr....t.f.trrrr
9 ....rr...rtt....rr.
0 ..rr..h...ttt..rr..
1 r.....r.t....r.r...
2 .t....rh......ttf..
3 rtf..r.r........hf.
4 r.tttrt.h.....fr...
5 .t.rtr.r.r...ttrf..
6 ..rrr....tt...t.r..
7 ......f.....ff..f.h
8 h.........tt...hh..
9 .fhttf.f.t..ff.....

Turn = 6.
  0123456789012345678
0 hrr..r..rrr..r.r.rr
1 ....r......rrr.r.rr
2 ...rrr..r.rr.r..r..
3 hr......r....r...t.
4 r.tt.tt.f..f....r.r
5 r.rr.ttt.rr......r.
6 r.rr.ttt...hf.r...r
7 ..rrtt.tttt...rrrtr
8 r...t...rtt.frr.r..
9 ....t...r.tt.......
0 r...t.....ttt...rr.
1 ........r.r....rr..
2 .tt.h.........t.rr.
3 rttt..r........r.rr
4 r.ttrrrh......f...r
5 .t...r.......tttt..
6 .r.r..rrttt...t...r
7 ......f.....ff..f.h
8 h.r.r..r..tt...hh..
9 .fttrr.f.t..ff.....

Turn = 9.
  0123456789012345678
0 rrrr.r.....r.r.rrrr
1 ..........r.....rrr
2 ..rr.r..rr.r.r....r
3 r.....t...r.r....t.
4 ttttttt.f..f.r.r..r
5 .rr..ttt..r...r..rr
6 rr.r.ttt.rrhrr.r.r.
7 .r..tt.trrrr..r.r..
8 ....t...rrr.f...r..
9 r...t....r.t.......
0 ..rrt.....ttt.r...r
1 ..........t.ttt..rr
2 rrtt..........tr.r.
3 rtttr.r............
4 r.ttt.........ttt..
5 .t....r......tttt.r
6 .t..rrrrttt...t..r.
7 ......r.r...ff..f.r
8 hr.rr...r.tt...hh..
9 .frr.rr..t..ff.....

*** Darwin 11x8 ***
Turn = 0.
  01234567
0 .ft..rth
1 ..f.f.h.
2 fhrhh..f
3 h.f.hh.r
4 fff.thrf
5 rh.tr.t.
6 .tttfr.f
7 rrh.f.rf
8 thf.rhh.
9 .hfrhh.r
0 r.hh.tht

Turn = 8.
  01234567
0 .r.r.ttr
1 rr.rrrtr
2 r.r...rr
3 ....rr..
4 rrrrrr..
5 rrrtttt.
6 rrrtttt.
7 rrttt..f
8 rtt.tt.h
9 r.t..tt.
0 r.tttttt

Turn = 16.
  01234567
0 rrrrrrrr
1 rrrrrr..
2 rr..r.r.
3 .r.r...r
4 rr....r.
5 rr.rr.tr
6 rr.rrrrr
7 rr..rr.r
8 rrrr.rr.
9 ..rrrrtt
0 rrrrr.tt
