*** Darwin 8x8 ***
Turn = 0.
  01234567
0 f.......
1 ........
2 ........
3 ...hh...
4 ...hh...
5 ........
6 ........
7 .......f

Turn = 1.
  01234567
0 f.......
1 ........
2 ...h....
3 .....h..
4 ..h.....
5 ....h...
6 ........
7 .......f

Turn = 2.
  01234567
0 f.......
1 ...h....
2 ........
3 ......h.
4 .h......
5 ........
6 ....h...
7 .......f

Turn = 3.
  01234567
0 f..h....
1 ........
2 ........
3 .......h
4 h.......
5 ........
6 ........
7 ....h..f

Turn = 4.
  01234567
0 f..h....
1 ........
2 ........
3 .......h
4 h.......
5 ........
6 ........
7 ....h..f

Turn = 5.
  01234567
0 f..h....
1 ........
2 ........
3 .......h
4 h.......
5 ........
6 ........
7 ....h..f

*** Darwin 7x9 ***
Turn = 0.
  012345678
0 t........
1 .........
2 .........
3 ..h......
4 .........
5 ....r....
6 ........t

Turn = 1.
  012345678
0 t........
1 .........
2 .........
3 ...h.....
4 ....r....
5 .........
6 ........t

Turn = 2.
  012345678
0 t........
1 .........
2 .........
3 ....r....
4 ....r....
5 .........
6 ........t

Turn = 3.
  012345678
0 t........
1 .........
2 .........
3 ....rr...
4 .........
5 .........
6 ........t

Turn = 4.
  012345678
0 t........
1 .........
2 ....r....
3 ......r..
4 .........
5 .........
6 ........t

Turn = 5.
  012345678
0 t........
1 ....r....
2 .........
3 .......r.
4 .........
5 .........
6 ........t

*** Darwin 20x20 ***
Turn = 0.
  01234567890123456789
0 .hf....f..t..h.....r
1 .t...h...........h..
2 hf..f...t....f.t....
3 ......ft.r.h.......r
4 ....f.......f.......
5 f.....fr............
6 .f....h.rt.....f....
7 .t....r........t....
8 ..h.f..t...tfh.....r
9 h...................
0 .............t......
1 ....f.h.h......tff..
2 h.......tt....t....t
3 ...f.....r.h.r.t....
4 ....t.....t.....h...
5 ....fr....r........r
6 ...f......f.........
7 ..r......r.....hhr..
8 ...frh.hrtr.......t.
9 hf..hf....h.fr.rf...

Turn = 1.
  01234567890123456789
0 h.f....f..t.h.....r.
1 .t..h...............
2 hf..f...t....f.t.h..
3 ......ft..r.h.....r.
4 ....f.......f.......
5 f.....rr............
6 .f...h..r......f....
7 .th......r.....t...r
8 h...f.rt...ttt......
9 ....................
0 .............t......
1 h...fh...t.....tff..
2 ........tt....t....t
3 ...f......r.r..th...
4 ....t.....rt........
5 ....rr....r........r
6 ...f......f.........
7 .....h...r.....hrr..
8 ..rfr..hrrr.......t.
9 hf..rf....h.rr.rf...

Turn = 2.
  01234567890123456789
0 h.f....f..th.....r..
1 .t.h................
2 hf..f...t....f.t....
3 ......ft...r.h...rr.
4 ....f.......f.......
5 f....rr.............
6 .f..h....r.....f...r
7 htt............t....
8 ....f..t.r.ttt......
9 ......r.............
0 h............t......
1 ....fh...t.....tff..
2 ........tt....t.h..t
3 ...f.......rr..t....
4 ....t.....r.........
5 ....rr....rr........
6 ...f.h....f........r
7 ........rrr....hrr..
8 ...fr..h..h.r.....t.
9 hfrr.f...r..r.r.f...

Turn = 3.
  01234567890123456789
0 h.f....f..th....r...
1 .th.................
2 hf..f...t....f.t....
3 ......tt....r.h..r..
4 ....f.......f....r..
5 f...rr.............r
6 hf.h......r....t....
7 .tt............t....
8 ....f..t...ttt......
9 h........r..........
0 ......r......t......
1 ....fh...t.....tff..
2 ........tt....t.h..t
3 ...f.......r...t....
4 ....tr.....rr.......
5 ....th....r.........
6 ...f....r.rr........
7 .........rr.r..h...r
8 ...rr...h.h.....rrt.
9 hfrr.f...r.r.r..f...

Turn = 4.
  01234567890123456789
0 h.f....f..tt...r....
1 .th.................
2 ht..f...t....f.t....
3 ......tt.....r.hr...
4 ....f.......f......r
5 f..rr............r..
6 hth........r...t....
7 .tt............t....
8 h...f..t...ttt......
9 ....................
0 .........r...t......
1 ....fhr..t.....ttt..
2 ........tt....t.h..t
3 ...f.r.....r...t....
4 ....th....rr........
5 ....t...r...r.......
6 ...f.....rr.r.......
7 ..........rr....h...
8 ...rr....hh.....r.tr
9 hfrr.f....rrr...rr..

Turn = 5.
  01234567890123456789
0 h.f....f..tt..r.....
1 .th.................
2 ht..f...t....f.t....
3 ......tt......rrr..r
4 ....f.......f.......
5 f.rr................
6 tth.........r..t.r..
7 htt............t....
8 ....f..t...ttt......
9 ....................
0 .........r...t......
1 ....fh...r.....ttt..
2 .....rr.tt....t.h..t
3 ...f......rr...t....
4 ....tt..r.r.........
5 ....t....r..r.......
6 ...f.....r..r.......
7 ..........r......h..
8 ..rr.....hhr....r.t.
9 hfr.rf....rrr...rr.r

*** Darwin 20x20 ***
Turn = 0.
  01234567890123456789
0 .......t...r.r..f..r
1 .....r.fr...........
2 ....h.tf..........f.
3 ..h........hf....hh.
4 ..rh...rr...h..h.f..
5 ..t..........r..rh.h
6 ...hf.....r.......r.
7 ...f.....f.th..t....
8 ......h...........r.
9 ....t....h.t..h.h..r
0 f..tf.........h..h..
1 ft..........tt....r.
2 ...r...h..f........t
3 ............f..r....
4 ....h..tf...t......r
5 .....r......h..h....
6 .t........tth...r...
7 ....r......ht...fr..
8 rf.f.ffh..f.........
9 .....t.......r..t...

Turn = 1.
  01234567890123456789
0 .....r.tr...r...f..r
1 .......t...r........
2 .....ttt...h......f.
3 ..hh........f...h...
4 ..r....r.r...hh..fh.
5 ................rrr.
6 ..rhf......t.r....r.
7 ...f.....f.t...t....
8 .....h......h.h.....
9 ....t......t...h..rr
0 f..tf....h...t....r.
1 ft..........tt....r.
2 ..r.......f........t
3 .......t....f.r.....
4 ...h.r.tf...t..h...r
5 ...........h........
6 .t........tth....r..
7 r..r......h.t...f.r.
8 .f.f.tf...f.........
9 .....t.h....r...t...

Turn = 2.
  01234567890123456789
0 .....r.tr..r....f..r
1 .......t...r........
2 ...h.ttt...r......f.
3 ..h....r....f..h....
4 ..........r..hh..rh.
5 ..r.............rrr.
6 ...hf......t......r.
7 ..rf.....f.t.rht....
8 ....t...............
9 ....t......th.h...r.
0 f..tt........t....rr
1 tt.......h..tt....r.
2 .r........f........t
3 .....r.t....fr.h....
4 ..h....tf...t.......
5 ..........t........r
6 rt........ttt.....r.
7 ..r......h..t...f..r
8 .f.f.tt...f.........
9 .....t.h...r....t...

Turn = 3.
  01234567890123456789
0 ......rtt.r.....f..r
1 ...h...t...r........
2 .....ttr....r.....f.
3 .......r....f.h.....
4 ..h........r.hh..rh.
5 .................rr.
6 ..rhf......t..h.r..r
7 ...f.....f.t...t....
8 ..r.t........r......
9 ....t......t.h.....r
0 f..tt.......tt....r.
1 tt..........tt....rr
2 r....r...hf....h...t
3 .......t....rr......
4 .h.....tf...t.......
5 r.........t.........
6 .t........ttt.....rr
7 .r......h...t...f..r
8 .f.f.tt...f.........
9 .....t.h..r.....t...

Turn = 4.
  01234567890123456789
0 ...h..rt.r......f.r.
1 .......tr...r.......
2 .....ttr.....r....f.
3 .......r....fh......
4 ............rhh..rr.
5 ..h...........h.r..r
6 ...hf......t.......r
7 ..rf.....f.t...tr...
8 ....t........r......
9 ..r.t......tr......r
0 f..tt.......tt...rr.
1 tt...r......tt.h...r
2 r.........f.........
3 .......t.h..rr.....r
4 r......tf...r.......
5 r.........t.........
6 .t........ttt......r
7 r......h....t...f.r.
8 .f.f.tt...f........r
9 .....t.h.r......t...

Turn = 5.
  01234567890123456789
0 ...h..r.rr......fr..
1 .......t.....r......
2 .....tttr.....r...f.
3 .......t....fh......
4 ............rrr..r.r
5 ..............hr...r
6 ..hhf......t.......r
7 ...f.....f.t...t....
8 ..r.t...........r..r
9 ....t......rrt....r.
0 t.tttr......tt.hr...
1 rt..........tt......
2 r.........f..r.....r
3 .......t....r.......
4 r......ttt...r.....r
5 r.........t.........
6 .t........ttt.....r.
7 r.....t.....t...f...
8 .f.f.tt...f.......r.
9 .....t.hr.......t..r

*** Darwin 20x20 ***
Turn = 0.
  01234567890123456789
0 .t..h.....rt........
1 t......fr...t.r..h.h
2 ..r..f......t......r
3 .tt...f.tt...t......
4 ...h....t.f....h....
5 t.......tf..f.......
6 ..h.h.......f...h.f.
7 .................r..
8 ....t.t...........h.
9 ...............rh..h
0 ..t..t.........ht...
1 ....f........ff....f
2 .f.....h....f.f.....
3 ........t...........
4 ..fh.........h.....t
5 ......f..h.ft...h...
6 ..........h.t.....t.
7 .rt..r.t...rh.t...t.
8 r..h..ft.t......t...
9 ...ffh.h..h.........

Turn = 1.
  01234567890123456789
0 .t...h..r.rt........
1 t......f....t..rh.h.
2 .t...f......t.......
3 .tt...f.tt...t.....r
4 ..h.....t.f...h.....
5 t.......tf..f.......
6 ...h........f.....f.
7 ....t...........h.r.
8 ....t.t........r....
9 ................h.h.
0 ..t..t.........ht..h
1 ....f........ff....f
2 .f......t...f.f.....
3 ...h....t...........
4 ..f......h......h..t
5 ......f....tth......
6 ...........rt.....t.
7 .rr...rt..h.t.t...t.
8 ...h..ft.th.....t...
9 r..ffh.h............

Turn = 2.
  01234567890123456789
0 .t....h.r.r.r.......
1 t......f....t..rrh..
2 .t...f......t.......
3 .tt...f.tt...t......
4 .h......t.f..h.....r
5 t.......tt..f.......
6 ....h.......f.....f.
7 ....t..........r...r
8 ....t.t.........h...
9 ................t...
0 ..t..t.........ht.hh
1 ....f........ff....f
2 .f.h....t...f.f.....
3 ........th......h...
4 ..f................t
5 ......f....rt.......
6 ...........rth....t.
7 .r....rt..h.t.t...t.
8 ..rh..ft.th.....t...
9 r..ffh.h............

Turn = 3.
  01234567890123456789
0 .t.....h.r.r.r..r...
1 t......f....t..rh...
2 .t...f......t.......
3 .tt...f.tt...t......
4 h.......t.f.h.......
5 t.......tt..f......r
6 .....h......f..r..f.
7 ....t..............r
8 ....t.t.........h...
9 ................t...
0 ..t..t.........ht..h
1 ...hf........ff...hf
2 .f......th..f.f.h...
3 ........t...........
4 ..f................t
5 ......f....rt.......
6 .......r...rtt....t.
7 ......r...h.t.t...t.
8 .r.h..ft.th.....t...
9 .rrffh.h............

Turn = 4.
  01234567890123456789
0 .t......h.r.r.rrr...
1 t......f....t..h....
2 .t...f......t.......
3 .tt...f.tt...t......
4 h.......t.fh........
5 t.......tt..f..r....
6 ......h.....f.....fr
7 ....t...............
8 ....t.t.........h..r
9 ................t...
0 ..th.t.........tt..h
1 ....f....h...ff.h..f
2 .f......t...f.f...h.
3 ........t...........
4 ..f................t
5 ......fr..r.t.......
6 ..........r.tt....t.
7 .......r..h.t.t...t.
8 .r.h..tt.th.....t...
9 .rrffh.h............

Turn = 5.
  01234567890123456789
0 .t.......h.r.rrr.r..
1 t......f....t.h.....
2 .t...f......t.......
3 .tt...f.tt...t......
4 h.......t.fh...r....
5 t.......tt..f.......
6 .......h....f.....f.
7 ....t..............r
8 ....t.t.........t...
9 ...h............t..r
0 ..t..t...h.....tt..h
1 ....f........ff.h..f
2 .f......t...f.f.....
3 ........t.........h.
4 ..f....r...........t
5 ......f..r..t.......
6 .........r..tt....t.
7 ........r.t.t.t...t.
8 ..rh..tt.tt.....t...
9 .rrffh.h............

*** Darwin 20x20 ***
Turn = 0.
  01234567890123456789
0 .....f.......f......
1 .r..h..f..t..tr...h.
2 ..fh....h......f....
3 t.........rr....t...
4 .th........t.......h
5 ...........rh...f.r.
6 ..f......t...t.r...h
7 tf.h..r..tt.......h.
8 ..t..f.........f....
9 .t....fr.....f.t..rf
0 ....r..t.t....h...r.
1 ..fff..r.........r..
2 .......t.....r......
3 .r............r.....
4 ....r..r...h..h..t..
5 .......r.......r..t.
6 ..h....t.t..........
7 .h.........h.f......
8 .tt...t.r.ftt..htt.h
9 f...........f.....r.

Turn = 1.
  01234567890123456789
0 .....f.......tr.....
1 ...h...f..t..t.....h
2 .rf.h....h.....f....
3 t.........rr....t...
4 .th.......r.........
5 ...........rr...f.rr
6 ..f......t...tr...hh
7 tf.....r.tt.........
8 ..th.f.r.......f....
9 .t....f......f.t.r.f
0 ....r..t.t.....h...r
1 ..ff.r..r....r....r.
2 .......t......r.....
3 ..r.r...............
4 ........r......h.t..
5 ..h...r....h..r...t.
6 .......t.t..........
7 h..........h.f.....h
8 .tt...t...ftt...tt..
9 f.......r...f..h..r.

Turn = 2.
  01234567890123456789
0 .....f.......tr.....
1 ..h....f..t..t.....h
2 ..f..h....h....f....
3 tr........r.....t...
4 .th......r.r........
5 ...........r....f.rr
6 ..f......t..trr...hr
7 tt.....rrtt.........
8 ..t..f.........f....
9 .t.h..f......f.tr..f
0 .......t.t...r..h..r
1 ..ffr.r..r....r....r
2 ....r..t............
3 ...r................
4 ..h......r......tt..
5 .....r.......r....t.
6 .......t.t.h.......h
7 h..........h.f......
8 .tt...t...ftt...tt..
9 f.......r...t..h.r..

Turn = 3.
  01234567890123456789
0 .....f.......t.r....
1 .h.....f..t..t.....h
2 ..f...h....h...f....
3 tr.......r......t...
4 .rr.....r..r......r.
5 ................f.hr
6 ..f....r.r.rrrr...r.
7 tt......rrt.........
8 ..t..f.........t....
9 .t....f......r.rr..f
0 ...h...t.t...rr..h.r
1 ..ffr..t..r........r
2 ....r..t............
3 ..h.r...............
4 ..........r.....tt..
5 ....r.......r.....th
6 .......t.t.h........
7 h..........t.f......
8 .tt...t...ftt...tt..
9 f......r....t..hr...

Turn = 4.
  01234567890123456789
0 .....f.......t..r...
1 h......f..t..t.....h
2 ..f....h....h..f....
3 tr......r.......t.r.
4 .r.....r..r.......h.
5 ..r....r......r.f..r
6 ..f.....rr..rr...r..
7 tt......r.tt........
8 ..t..f.......r.r....
9 .t....f......rrrr..f
0 ...h...t.t........rr
1 ..ff.r.t...r.......r
2 ..hr...t............
3 .....r..............
4 ...........r....tt.h
5 ...r.......r......t.
6 .......t.t.h........
7 h..........t.f......
8 .tt...t...ftt...tt..
9 f.....r.....t..rr...

Turn = 5.
  01234567890123456789
0 .....f.......t...r..
1 h......f..t..t.....h
2 ..f.....h....h.f..r.
3 tr.....r........t.h.
4 .r....rr.r....r.....
5 ..r......r..rr..f...
6 ..r....r........r..r
7 tt........tt.r......
8 ..t..f..r....rrr....
9 .t....f........r...f
0 ...h...t.t......r.rr
1 ..ff..rt....r.....r.
2 ..rr...t............
3 ......r............h
4 ............r...tt..
5 ..r.......r.......t.
6 .......t.t.h........
7 h..........t.f......
8 .tt...t...ttt...tt..
9 f....r......t..rr...

*** Darwin 20x20 ***
Turn = 0.
  01234567890123456789
0 ...h...t..t..r...t..
1 .............r...r..
2 .....t......t...f..h
3 .....hf...rt........
4 h..r..t.t....f.....t
5 ...h.h..fh.hhr..hr.r
6 ....t...r......r.hr.
7 ...r.r........r.....
8 ...........f...r.f.f
9 ..rt.f...r...t..t...
0 r..........f..r.....
1 .....h..........r...
2 ...................f
3 t.f....f.....tr..t.r
4 .....r....f......r..
5 .f.t..h..fh..r.f....
6 ft.....r....h...r..f
7 ...r....t.....hfh...
8 ht.......hr..r..f...
9 ..r.f.t............r

Turn = 1.
  01234567890123456789
0 ..h....t..t...r..t..
1 ................r...
2 .....t.....rtr..f...
3 .....tf...r........h
4 .h.r.ht.t...hf...r.t
5 ...r....fhh........r
6 ....tr.r.....rr.h...
7 ..............r..hr.
8 ...r.......f.....f.f
9 ..r.rf.......t.rt...
0 .....h...r.f.r..r...
1 r...................
2 ...................f
3 t.f..r.f.....t.r.tr.
4 ..........f.........
5 .f.t...r.fh.r..f.r..
6 ft.r...r.....h.rh..f
7 ........t......f....
8 ht......h..r.rr.f...
9 .r..f.t............r

Turn = 2.
  01234567890123456789
0 .h.....t..t....r.t..
1 ...........r...r....
2 .....t......tt..f...
3 .....tf....rh....r.t
4 ..hr.ht.t....f.....r
5 ....tr..thh........r
6 ....t.r......r......
7 .............r.rhh..
8 ...........f.....frf
9 ..rrrhr......t..r...
0 ...........fr..rr...
1 .........r..........
2 r....r.............f
3 t.f....f.....t..rrr.
4 ..........f.........
5 .t.r...rrfhr...fh...
6 ft.r..........rr.r.f
7 ........t......f....
8 ht.....h....rr..f...
9 r...f.t.......r...r.

Turn = 3.
  01234567890123456789
0 h......t..tr....rt..
1 ..............r.....
2 .....t......rt..fr..
3 .....tf....rr......t
4 ..rr.tt.t....f.....r
5 ....tt..thh........r
6 ....tr......r.......
7 ...............r.h..
8 .....r.....f.r..rf.f
9 ....r..r.....t.rr.r.
0 ..rr.......rr.......
1 .....r.........r....
2 r........r.........f
3 ..f....f.....t..rrr.
4 r......r.rf.....h...
5 .trr....r.rr...f....
6 ft............rr...f
7 ........t....r.f.r..
8 ht....h.....r...f...
9 r...f.t.......r..r..

Turn = 4.
  01234567890123456789
0 h......t..tr....r.r.
1 ............rt...r..
2 .....t......rt..f...
3 .....tt....r.......t
4 ..rr.tt.t....f.....r
5 ....tt..thh........r
6 ....rr.....r........
7 .....r..........rh..
8 ...........f.r..rf.f
9 .....r..r..r..rrr...
0 .....r.....r......r.
1 ..rr................
2 ...............rrrrf
3 r.f....r.r...t..h...
4 ...r...r.rr.........
5 rtt......rrr..rr....
6 tt...........r.r...f
7 ........t...r..f....
8 rt...h..........fr..
9 r...f.t......r..r...

Turn = 5.
  01234567890123456789
0 h......t..rrr....r.r
1 ............rt...r..
2 .....t.....r.t..f...
3 ..r..tt............t
4 .....tt.t....f.....t
5 ...rtt..tth........t
6 .....r....r.........
7 ....rr..........rr..
8 ...........r...rr.rf
9 .....rr..r.r.rrr....
0 ..........r.........
1 ................rrr.
2 ..rr............h.rf
3 ..fr...rrr...t.r....
4 r........rrr..r.....
5 rtt......r.r.r.r....
6 tt..........r..r...f
7 ........t......f....
8 rt..h...........f...
9 r...f.t.....r..r.r..

*** Darwin 20x20 ***
Turn = 0.
  01234567890123456789
0 ..........h........h
1 ...f.f.tt.........r.
2 f..f.f.f......htr...
3 .....h....h.t....h..
4 .h...ht.............
5 .....t....f......t..
6 ...f....r.ftt..hfh.r
7 ..........h..h..fh..
8 ...h..r..tt.......tt
9 .....rh........t...h
0 .r..hh.r.......f...r
1 ...r........ht....f.
2 ...h.....rf.h.r.....
3 ...h....h..r........
4 ..t..t.....h.r......
5 f.ff.....t..f.......
6 ..h.t.........tf....
7 .....r...hf......f..
8 ..h.............r...
9 .h......rh.t....t...

Turn = 1.
  01234567890123456789
0 .........h.........h
1 ...f.f.tt.....h.r..r
2 f..f.f.f.......t.h..
3 .h....t....ht.......
4 .....ht.............
5 .....t....f......t..
6 ...f......ttt.h.ftr.
7 ........r..h....fh..
8 ....h.r..tt..h....tt
9 ....hr.r.......t...h
0 ....h.r........f....
1 .r..r......hhtr...fr
2 ..h.......fr........
3 .........r...r......
4 ..tt.t..h...h.......
5 f.ff.....t..f.......
6 ..h.t.........tt....
7 ....r.....f......f..
8 .h......rh.....r....
9 h.......h..t....t...

Turn = 2.
  01234567890123456789
0 ........h.....h.r..h
1 ...f.f.tt........h.r
2 fh.f.f.f.......t....
3 ......t....ht.......
4 .....ht.............
5 .....t....t......t..
6 ...f......ttth..frr.
7 ............h...fh..
8 ....hh..rtt.......tt
9 ......r.r....h.t....
0 ...h.rr.....h.rf...h
1 .....r....hr.t....f.
2 .rh.......f..r.....r
3 ....................
4 ..tt.t...r...h......
5 f.tt....ht..f.......
6 ..h.t.........tt....
7 ...r....r.f......f..
8 h.............r.....
9 h......h.h.t....t...

Turn = 3.
  01234567890123456789
0 .......h......h.rh.r
1 .h.f.f.tt..........r
2 f..f.f.f.......t....
3 ......t....tt.......
4 .....tt.............
5 .....t....t......t..
6 ...f......ttth..rrr.
7 ....h........h..fh..
8 ......h.rtt.......tt
9 ......r..r..h.rt....
0 ..h..rr....r.h.f....
1 ......r..h...r....fh
2 .h........f..r......
3 .r.................r
4 ..tt.t...r....h.....
5 f.tt......r.f.......
6 ..h.t...r.....tt....
7 ..r.....r.f......f..
8 h............r......
9 h.....h..h.t....t...

Turn = 4.
  01234567890123456789
0 .h....h.......h.rr.r
1 ...f.f.tt..........r
2 f..f.f.t.......t....
3 ......t....tt.......
4 .....tt.............
5 .....t....t.....rtr.
6 ...fh.....ttth..rh..
7 ..............h.f...
8 .......rrtt.h.r...tt
9 .......r..rr...t....
0 .h...r.r.....h.t....
1 .......rh....r....f.
2 h.........f..r.....h
3 ....................
4 .ttt.t.........h...r
5 f.tt.....r.rf.......
6 ..h.t...r.....tt....
7 .r......r.f......f..
8 h...........r.......
9 h....h...h.t....t...

Turn = 5.
  01234567890123456789
0 .h...h........h.r.rr
1 ...f.f.tt..........r
2 f..f.f.t.......t....
3 ......t....tt.......
4 .....tt.........r.r.
5 ....ht....t......t..
6 ...f......tttt.r.h..
7 ............h.rhf...
8 .......rtttr......tt
9 .....r..r.r....t....
0 h.......r....h.t....
1 .......rr...r.....f.
2 h.........f...r.....
3 ...................h
4 .ttt.t......r...h...
5 f.tt.......r.......r
6 ..h.t...rr....tt....
7 r......r..f......f..
8 h..........r........
9 h...h....h.t....t...

*** Darwin 20x20 ***
Turn = 0.
  01234567890123456789
0 ..h........r.rt.....
1 frt...f.f.r.......ht
2 ....f..hr.....t...ff
3 ........trh..tr.f...
4 ....f.t.rh..........
5 ....t.r.......t...h.
6 .t..hh.tr...t..rr...
7 ...h....t.f.h...t...
8 .......h......h..r..
9 .....t..r...........
0 .........h..f.......
1 ..h.h...............
2 .....ht......h.h....
3 tr....f........f.h..
4 ..f.....r..f........
5 ..h...hf........f..h
6 th...h............h.
7 ..rf.....h.f.....h..
8 ........t.tr.t..h...
9 ......h.......f...f.

Turn = 1.
  01234567890123456789
0 ...h........rrt...h.
1 f.t...f.f..........t
2 .r..f....rr...r...ff
3 .......htr.h.tr.f...
4 ....t.t.rr..........
5 ....t.t.......t.r..h
6 .t.hh.hrt...t.......
7 ........t.fh..hrt...
8 ......h.............
9 .....t...........r..
0 ..h.....rh..f.......
1 .....h.......h......
2 ....h.t........h....
3 tt....f.r......f....
4 ..f........f.....h..
5 .....hhf........f...
6 tth...............hh
7 ...f.......t....h...
8 ..r.....thtt.t.h....
9 .......h......f...f.

Turn = 2.
  01234567890123456789
0 ....h.......rrr...h.
1 f.t...f.f.....r....t
2 ....f....r....r...ff
3 .r......trr.ht..f...
4 ....t.thrr......r...
5 ...ht.t.......t....h
6 .t..h.hrt...t.h.....
7 ........t.fh....t...
8 .....t.........r....
9 ..h..t..............
0 ........h...fh...r..
1 ......h.r...........
2 ...h..t.r......h....
3 tt....f........f....
4 ..f..h.....f........
5 ......hf........fh..
6 tt................h.
7 ..hf.......t...h...h
8 ........t.tt.th.....
9 ..r.....hh....f...f.

Turn = 3.
  01234567890123456789
0 .....h......rrrr..h.
1 f.t...f.f.....r....t
2 ....f....r........ff
3 ........tr..ht..r...
4 .r.ht.ttrrr.....r...
5 ....t.t.......t....h
6 .t..h.ttt...t.h.....
7 ........t.fh....t...
8 ..h..t..............
9 .....t.......h.r....
0 .......h....f.......
1 .......hr........r..
2 ..h...t.r......h....
3 tt...ht........f....
4 ..f........f........
5 ......hf........f...
6 tt...............h.h
7 ...f.......t..h.....
8 ..h.....t.tt.th....h
9 ..r.....hh....f...f.

Turn = 4.
  01234567890123456789
0 ......h.....rrr.r.h.
1 f.t...f.f.....r....t
2 ....f.....r.....r.ft
3 ...h....tt..ht..r...
4 ....t.tttt..........
5 .r..t.t...r...t....h
6 .t..t.ttt...t.h.....
7 ..h.....t.fh....t...
8 .....t.......h......
9 .....t..............
0 ......h.....f..r....
1 .......rr...........
2 .h...ht..r.....h.r..
3 tt....t........f....
4 ..f........f........
5 ......hf........f...
6 tt.................h
7 ...f.......t.h...h..
8 ..h.....t.tt.tt.....
9 ...r....hh....f...fh

Turn = 5.
  01234567890123456789
0 .......h....r..r.rh.
1 f.t...f.f...r..rr..t
2 ...hf......r....r.ft
3 ........tt..tt......
4 ....t.tttt..........
5 .r..t.t.......t....h
6 ..r.t.ttt.r.t.t.....
7 ..h.....t.fh.h..t...
8 .....t..............
9 .....t..............
0 .....h......f.......
1 .....h.rr......r....
2 h.....t...r....h....
3 tt....t........f.r..
4 ..f........f........
5 ......hf........f...
6 tt.................h
7 ...f.......th.......
8 ........t.tt.tt..h..
9 ..h.r...hh....t...fh

*** Darwin 20x20 ***
Turn = 0.
  01234567890123456789
0 ..hrf.........t.f...
1 .thfh.h....hh....h..
2 ..rh.r.f............
3 .ft.r.thr.h....t....
4 ....rh.r.r.........h
5 ........r..........h
6 .................hfh
7 t.f.rr.f.t..t.......
8 .r....rtt........r..
9 ..t.t..ht...........
0 ....r...r.....f..f..
1 .......t..r........t
2 ........t...ft..t.f.
3 hr.rf.....f.......f.
4 ....hf..f......r....
5 .f....h.h.t.h...fh..
6 h..f.r..r...........
7 ....f...f...........
8 .............ft.....
9 ..tr..h....t........

Turn = 1.
  01234567890123456789
0 ..hrf.......h.t.f...
1 .trf.hh...h.........
2 ..rhr.rfr........h..
3 .ft...th.h.....t....
4 ...rh.r.r..........h
5 .........r.........h
6 ..................fh
7 t.f...rt.t..t....h..
8 ..r.rr.tt.......r...
9 ..t.t...t...........
0 .....r.tt.....f..f..
1 .......t...........t
2 ........t.r.ft..t.f.
3 h..rr.....f.......f.
4 .r..r.h.f.......r...
5 .f...r.hr.th....fh..
6 h..f................
7 ....fr..f...........
8 ......h......ft.....
9 ..tr.......t........

Turn = 2.
  01234567890123456789
0 ..rrr.......h.t.f...
1 .trfrhhrrh..........
2 ..rh..r.............
3 .ft...t.hh.....t.h..
4 ..rh..tr...........h
5 ..........r........h
6 ......r...........fh
7 t.f....t.t..t.......
8 ...rr..tt......r.h..
9 ..t..r..t...........
0 ....r.rtt.....f..f..
1 .......t...........t
2 ........t.r.ft..t.f.
3 .h.rr.h....r......f.
4 .r...r..r........r..
5 .r....h.r.th....fh..
6 h..f.r..............
7 ....f.h.f...........
8 .....r.......tt.....
9 ..t.r......t........

Turn = 3.
  01234567890123456789
0 ..trrr.rr...h.t.f...
1 .ttf.hh.h...........
2 ..tr...r............
3 .ft...t.hh.....t....
4 .rh...rr.........h.h
5 ......r....r.......h
6 ..................fh
7 t.f....t.t..t.......
8 ...r...tt.....r.....
9 ..t.r...t........h..
0 .....rrr......f..f..
1 ....r..tr..........t
2 ......h.t...ft..t.f.
3 ..hr....r.r.r.....f.
4 .r.r..r.r.........r.
5 r....h....th....fh..
6 h..f..h.............
7 ....fr..f...........
8 .............tt.....
9 ..t.rr.....t........

Turn = 4.
  01234567890123456789
0 ..ttr.rrr...h.t.f...
1 .ttt.hhh............
2 ..tt....r...........
3 .ft...t.hh.....t....
4 rh....rr...........h
5 ......r.....r....h.h
6 ..................fh
7 t.fr...t.t..t.......
8 .......tt....r......
9 ..t.....t........h..
0 ....r.r.r.....f..f..
1 .....rhtr..........t
2 ....r...r...tt..t.f.
3 ..rr....r....r....f.
4 r......rr.r........r
5 r..rh.h...th....fh..
6 h..f................
7 ....f...f...........
8 ....rr.......tt.....
9 ..t..r.....t........

Turn = 5.
  01234567890123456789
0 ..tt.rrrr...h.t.f...
1 .ttt.hhh............
2 ..tt.....r..........
3 .tt...r.hh.....t....
4 rh....r............h
5 .....r.r.....r.....h
6 ...r.............hfh
7 t.f....t.t..t.......
8 .......tt...r.......
9 ..t...r.t........h..
0 ......h..r....f..f..
1 ....r..tt..........t
2 .....r..t...tt..t.f.
3 ..rrr..r......r...f.
4 r.....hr.rr........r
5 r..rh.....rr....fh..
6 h...................
7 ...rr...f...........
8 ....rr.......tt.....
9 ..t...r....t........
